<?xml version="1.0" encoding="utf-8"?>
<!-- Generator: Adobe Illustrator 19.2.1, SVG Export Plug-In . SVG Version: 6.00 Build 0)  -->
<svg version="1.1" id="Ebene_1" xmlns="http://www.w3.org/2000/svg" xmlns:xlink="http://www.w3.org/1999/xlink" x="0px" y="0px"
	 viewBox="0 0 50 50" style="enable-background:new 0 0 50 50;" xml:space="preserve">
<style type="text/css">
	.st0{fill:#636262;}
	.st1{fill:#FFFFFF;}
</style>
<circle id="XMLID_1075_" class="st0" cx="25" cy="25" r="25"/>
<path class="st1" d="M25.6,13.2c-0.3,0-0.6,0.2-0.6,0.5v1.6c0,0.3,0.2,0.5,0.5,0.5c2.6,0.1,4.9,1.3,6.5,3.2c1.3,1.5,2.1,3.4,2.2,5.5
	c0,0.3,0.2,0.5,0.5,0.5h1.6c0.3,0,0.5-0.3,0.5-0.6C36.5,18.4,31.6,13.5,25.6,13.2z"/>
<path class="st1" d="M36.7,36.7l-1-1c-0.3-0.3-0.3-0.6-0.1-0.8c2.6-2.8,3.9-6.3,3.9-9.9c0-3.5-1.3-7.1-3.9-9.9
	c-0.2-0.2-0.2-0.5,0-0.7l1.1-1.1c0.2-0.2,0.6-0.2,0.8,0c6.2,6.6,6.2,16.8,0,23.4C37.3,36.9,36.9,36.9,36.7,36.7z"/>
<path class="st1" d="M18.2,34.7c-5-3.5-6.5-10.3-3.5-15.6c0.1-0.3,0.5-0.3,0.8-0.2l1.3,0.8c0.2,0.2,0.3,0.5,0.2,0.7
	c-1.1,2-1.5,4.3-1,6.5s1.8,4.2,3.6,5.5c0.2,0.2,0.3,0.5,0.1,0.7l-0.8,1.3C18.8,34.8,18.4,34.9,18.2,34.7z"/>
<path class="st1" d="M25,18.4c-3.6,0-6.6,2.9-6.6,6.6c0,3.6,2.9,6.6,6.6,6.6s6.6-2.9,6.6-6.6C31.6,21.4,28.6,18.4,25,18.4z
	 M21.4,26.7c-0.4-0.8-0.5-1.8-0.2-2.8c0.3-1.2,1.5-2.4,2.7-2.7c2-0.6,3.8,0.4,4.7,2c0.1,0.2,0,0.6-0.2,0.7L22.2,27
	C21.9,27.1,21.6,27,21.4,26.7z"/>
<path id="XMLID_1074_" class="st1" d="M25,40c0-0.3-0.2-0.5-0.5-0.5c-4-0.1-7.8-1.9-10.5-5c-2.5-2.9-3.8-6.7-3.5-10.5
	c0.3-3.7,1.9-7.1,4.6-9.6c0.2-0.2,0.2-0.5,0-0.7l-1-1.2c-0.2-0.2-0.5-0.2-0.8,0C6.6,18.6,6,29.2,12.1,36.2c3.3,3.8,7.8,5.8,12.4,5.9
	c0.3,0,0.5-0.2,0.5-0.5V40z"/>
</svg>
