<?xml version="1.0" encoding="utf-8"?>
<!-- Generator: Adobe Illustrator 19.2.1, SVG Export Plug-In . SVG Version: 6.00 Build 0)  -->
<svg version="1.1" id="Ebene_1" xmlns="http://www.w3.org/2000/svg" xmlns:xlink="http://www.w3.org/1999/xlink" x="0px" y="0px"
	 viewBox="0 0 50 50" style="enable-background:new 0 0 50 50;" xml:space="preserve">
<style type="text/css">
	.st0{fill:#636262;}
	.st1{fill:#FFFFFF;}
</style>
<circle id="XMLID_591_" class="st0" cx="25" cy="25" r="25"/>
<path class="st1" d="M28.9,11.1v1.6c0,0.3,0.2,0.5,0.5,0.5h6.8c0.3,0,0.5,0.2,0.5,0.5v6.8c0,0.3,0.2,0.5,0.5,0.5h1.6
	c0.3,0,0.5-0.2,0.5-0.5v-9.5c0-0.3-0.2-0.5-0.5-0.5h-9.5C29.2,10.5,28.9,10.8,28.9,11.1z"/>
<path class="st1" d="M11.1,21.1h1.6c0.3,0,0.5-0.2,0.5-0.5v-6.8c0-0.3,0.2-0.5,0.5-0.5h6.8c0.3,0,0.5-0.2,0.5-0.5v-1.6
	c0-0.3-0.2-0.5-0.5-0.5h-9.5c-0.3,0-0.5,0.2-0.5,0.5v9.5C10.5,20.8,10.8,21.1,11.1,21.1z"/>
<path class="st1" d="M12.6,28.9h-1.6c-0.3,0-0.5,0.2-0.5,0.5v9.5c0,0.3,0.2,0.5,0.5,0.5h9.5c0.3,0,0.5-0.2,0.5-0.5v-1.6
	c0-0.3-0.2-0.5-0.5-0.5h-6.8c-0.3,0-0.5-0.2-0.5-0.5v-6.8C13.2,29.2,12.9,28.9,12.6,28.9z"/>
<path class="st1" d="M36.3,36.8h-6.8c-0.3,0-0.5,0.2-0.5,0.5v1.6c0,0.3,0.2,0.5,0.5,0.5h9.5c0.3,0,0.5-0.2,0.5-0.5v-9.5
	c0-0.3-0.2-0.5-0.5-0.5h-1.6c-0.3,0-0.5,0.2-0.5,0.5v6.8C36.8,36.6,36.6,36.8,36.3,36.8z"/>
<path class="st1" d="M25,18.4c-3.6,0-6.6,2.9-6.6,6.6c0,3.6,2.9,6.6,6.6,6.6s6.6-2.9,6.6-6.6C31.6,21.4,28.6,18.4,25,18.4z
	 M28.3,23.9L22.2,27c-0.3,0.1-0.6,0-0.7-0.3c-0.4-0.8-0.5-1.8-0.2-2.8c0.3-1.2,1.5-2.4,2.7-2.7c2-0.6,3.8,0.4,4.7,2
	C28.7,23.5,28.5,23.8,28.3,23.9z"/>
</svg>
