<?xml version="1.0" encoding="utf-8"?>
<!-- Generator: Adobe Illustrator 19.2.1, SVG Export Plug-In . SVG Version: 6.00 Build 0)  -->
<svg version="1.1" id="Ebene_1" xmlns="http://www.w3.org/2000/svg" xmlns:xlink="http://www.w3.org/1999/xlink" x="0px" y="0px"
	 viewBox="0 0 50 50" style="enable-background:new 0 0 50 50;" xml:space="preserve">
<style type="text/css">
	.st0{fill:#636262;}
	.st1{fill:#BCC301;}
</style>
<circle id="XMLID_427_" class="st0" cx="25" cy="25" r="25"/>
<path class="st1" d="M39.2,26.2c-1.6-0.6-3.4-0.1-4.4,1.1L31.5,26c0.1-0.4,0.1-0.7,0.1-1.1c0-1.7-0.6-3.2-1.7-4.4l2.6-3.5
	c1.5,0.5,3.3,0,4.3-1.4c1.3-1.7,0.9-4.2-0.8-5.5s-4.2-0.9-5.5,0.8c-1,1.4-1,3.2-0.1,4.6L27.8,19C27,18.6,26,18.4,25,18.4
	c-3.2,0-5.8,2.3-6.4,5.3h-3c-0.5-1.5-2-2.6-3.7-2.6C9.7,21.1,8,22.9,8,25c0,2.2,1.8,3.9,3.9,3.9c1.7,0,3.2-1.1,3.7-2.6h3
	c0.5,2.6,2.6,4.6,5.1,5.1V37c-1.5,0.5-2.6,2-2.6,3.7c0,2.2,1.8,3.9,3.9,3.9c2.2,0,3.9-1.8,3.9-3.9c0-1.7-1.1-3.2-2.6-3.7v-5.6
	c1.8-0.4,3.3-1.4,4.2-2.9l3.3,1.3c0,1.6,0.9,3.2,2.5,3.8c2,0.8,4.3-0.2,5.1-2.3C42.3,29.3,41.3,27,39.2,26.2z M28.3,23.9L22.2,27
	c-0.3,0.1-0.6,0-0.7-0.3c-0.3-0.7-0.5-1.6-0.3-2.4c0.3-1.5,1.5-2.8,3.1-3.1c1.9-0.4,3.6,0.6,4.3,2.1C28.7,23.5,28.5,23.8,28.3,23.9z
	"/>
</svg>
