<?xml version="1.0" encoding="utf-8"?>
<!-- Generator: Adobe Illustrator 19.2.1, SVG Export Plug-In . SVG Version: 6.00 Build 0)  -->
<svg version="1.1" id="Ebene_1" xmlns="http://www.w3.org/2000/svg" xmlns:xlink="http://www.w3.org/1999/xlink" x="0px" y="0px"
	 viewBox="0 0 65 65" style="enable-background:new 0 0 65 65;" xml:space="preserve">
<style type="text/css">
	.st0{fill:#BCC301;}
	.st1{fill:#FFFFFF;}
</style>
<circle id="XMLID_750_" class="st0" cx="32.5" cy="32.5" r="32.5"/>
<path id="XMLID_743_" class="st1" d="M55.3,27l-8.8-2.9c-0.2-0.1-0.4,0-0.5,0.3c-0.7,2.7-1.9,5.1-3.4,7.2c0,0,0,0,0,0
	c-0.1,0.1-0.2,0.3-0.4,0.6c-0.1,0.2-0.2,0.3-0.1,0.5l2.4,5c-4.1,4-9.4,6.7-15.1,7.5l-2.6-5c-0.1-0.2-0.3-0.1-0.5-0.1
	c-0.4,0-0.6,0-0.7,0c-2.5,0-5.1-0.5-7.7-1.6c-0.2-0.1-0.4,0-0.5,0.2l-2.9,8.8c-0.1,0.2,0,0.4,0.2,0.5c17,6.6,35.8-2.8,40.8-20.3
	C55.6,27.3,55.5,27,55.3,27z"/>
<path class="st1" d="M37.8,17.3l0.7-1.9c0.1-0.4-0.1-0.8-0.4-0.9c-1.7-0.5-3.6-0.8-5.5-0.8c-8,0-14.9,5.1-17.6,12.2
	c-0.1,0.4,0.1,0.8,0.4,0.9l1.9,0.7c0.3,0.1,0.7-0.1,0.8-0.4c2.2-5.8,7.8-9.9,14.4-9.9c1.5,0,3,0.2,4.4,0.6
	C37.3,17.9,37.6,17.7,37.8,17.3z"/>
<path class="st1" d="M32.5,23.9c0.8,0,1.5,0.1,2.2,0.3c0.4,0.1,0.7-0.1,0.8-0.4l0.7-2c0.1-0.4-0.1-0.8-0.4-0.9
	c-1-0.3-2.1-0.5-3.3-0.5c-5,0-9.3,3.1-11.1,7.5c-0.1,0.4,0.1,0.8,0.4,0.9l1.9,0.7c0.3,0.1,0.7-0.1,0.8-0.4
	C25.9,26.1,29,23.9,32.5,23.9z"/>
</svg>
